<?xml version="1.0" encoding="UTF-8" standalone="no"?>
<!-- Created with Inkscape (http://www.inkscape.org/) -->

<svg
   width="35mm"
   height="35mm"
   viewBox="0 0 35.000001 34.999999"
   version="1.1"
   id="svg5"
   inkscape:version="1.1.2 (0a00cf5339, 2022-02-04)"
   sodipodi:docname="heart.svg"
   xmlns:inkscape="http://www.inkscape.org/namespaces/inkscape"
   xmlns:sodipodi="http://sodipodi.sourceforge.net/DTD/sodipodi-0.dtd"
   xmlns="http://www.w3.org/2000/svg"
   xmlns:svg="http://www.w3.org/2000/svg">
  <sodipodi:namedview
     id="namedview7"
     pagecolor="#ffffff"
     bordercolor="#666666"
     borderopacity="1.0"
     inkscape:pageshadow="2"
     inkscape:pageopacity="0.0"
     inkscape:pagecheckerboard="0"
     inkscape:document-units="mm"
     showgrid="false"
     inkscape:zoom="12.023565"
     inkscape:cx="51.606989"
     inkscape:cy="15.344866"
     inkscape:window-width="2478"
     inkscape:window-height="1527"
     inkscape:window-x="82"
     inkscape:window-y="0"
     inkscape:window-maximized="1"
     inkscape:current-layer="layer1"
     fit-margin-top="0"
     fit-margin-left="0"
     fit-margin-right="0"
     fit-margin-bottom="0" />
  <defs
     id="defs2" />
  <g
     inkscape:label="Layer 1"
     inkscape:groupmode="layer"
     id="layer1"
     transform="translate(-0.05282886,-0.00281864)">
    <text
       xml:space="preserve"
       style="font-style:normal;font-variant:normal;font-weight:normal;font-stretch:normal;font-size:10.5833px;line-height:125%;font-family:'Noto Sans';-inkscape-font-specification:'Noto Sans';letter-spacing:0px;word-spacing:0px;fill:#000000;fill-opacity:1;stroke:none;stroke-width:0.264583px;stroke-linecap:butt;stroke-linejoin:miter;stroke-opacity:1"
       x="19.356421"
       y="26.22121"
       id="text1967"><tspan
         sodipodi:role="line"
         id="tspan1965"
         style="font-style:normal;font-variant:normal;font-weight:normal;font-stretch:normal;font-family:'Noto Sans';-inkscape-font-specification:'Noto Sans';stroke-width:0.264583px"
         x="19.356421"
         y="26.22121" /></text>
    <text
       xml:space="preserve"
       style="font-style:normal;font-variant:normal;font-weight:normal;font-stretch:normal;font-size:10.5833px;line-height:125%;font-family:'Noto Sans';-inkscape-font-specification:'Noto Sans';letter-spacing:0px;word-spacing:0px;fill:#000000;fill-opacity:1;stroke:none;stroke-width:0.264583px;stroke-linecap:butt;stroke-linejoin:miter;stroke-opacity:1"
       x="25.393492"
       y="19.279314"
       id="text17067"><tspan
         sodipodi:role="line"
         id="tspan17065"
         style="font-style:normal;font-variant:normal;font-weight:normal;font-stretch:normal;font-family:'Noto Sans';-inkscape-font-specification:'Noto Sans';stroke-width:0.264583px"
         x="25.393492"
         y="19.279314"></tspan><tspan
         sodipodi:role="line"
         style="font-style:normal;font-variant:normal;font-weight:normal;font-stretch:normal;font-family:'Noto Sans';-inkscape-font-specification:'Noto Sans';stroke-width:0.264583px"
         id="tspan17069"
         x="25.393492"
         y="32.508438" /></text>
    <g
       aria-label="♡"
       id="text27019"
       style="font-size:10.5833px;font-family:'Noto Sans';-inkscape-font-specification:'Noto Sans';letter-spacing:0px;word-spacing:0px;stroke-width:0.057697px"
       transform="matrix(4.6200071,0,0,4.5517028,-86.463018,-38.941901)">
      <path
         d="m 20.633199,8.556077 q 1.126543,0 1.725988,1.4210974 0.144693,0.4134106 0.144693,0.5374336 0.03101,0 0.09819,-0.361734 0.578774,-1.596797 1.793167,-1.596797 1.080034,0 1.710484,1.0903693 0.19637,0.4030747 0.19637,0.8164847 v 0.06718 q 0,1.333248 -1.142045,2.52697 -2.3306,2.847362 -2.640658,3.188426 h -0.03101 L 19.34646,12.374953 q -0.620115,-0.919837 -0.620115,-1.860345 0,-1.085202 1.028358,-1.7259878 0.418578,-0.2325432 0.878496,-0.2325432 z m -1.643305,1.906854 v 0.08268 q 0,1.131711 1.074867,2.30993 l 2.454622,2.997223 h 0.0155 l 2.966218,-3.612171 q 0.537433,-0.831988 0.537433,-1.6123 v -0.196369 q 0,-0.8888323 -0.976681,-1.4676065 -0.366902,-0.1446935 -0.666624,-0.1446935 -1.364254,0 -1.80867,2.309929 -0.05168,0.19637 -0.05168,0.330728 h -0.03101 q 0,-0.403075 -0.372069,-1.4831086 -0.52193,-1.1575484 -1.498612,-1.1575484 -0.899167,0 -1.452103,0.9146699 -0.191202,0.3617341 -0.191202,0.7286351 z"
         id="path51877"
         style="stroke-width:0.057697px" />
    </g>
  </g>
</svg>
